0 2 4 6
0.0 0.9093 -0.7568 -0.2794
2.0 1.1677  2.6927  7.989
0.0 1 2 3 4 5 6
0.0 0.8415 0.9093 0.1411 -0.7568 -0.9589 -0.2794
2.0 2.0806 1.1677 1.02    2.6927 5.5673  7.989
0.0 1 2 3 4 5 6
0.0 0.8415 0.9093 0.9411 -0.7568 -0.9589 -0.2794
2.0 2.0806 1.1677 5.5    2.6927 5.5673  7.989
0.0 5 10 15 20 21 30
0.0 -0.9589 -0.544  0.6503 0.9129 0.8367 -0.988
2.0 5.5673  8.3219 13.4806 20.8162 19.9045 30.3085
-10.0 -8 -6 -4 -3 -2 0
-10.0 -6.0872 -2.544 0.6503 0.9129 2.8367 5.988
-10.0 -6.0872 -2.544 0.6503 0.9129 2.8367 5.988
-10.0 0 10
-10.0 -6.0872 -2.544
-10.0 -6.0872 -2.544